Portfolio - Multinomial Volcano Classification project
…
Our objective in modeling is to forecast the category of volcanoes in this week’s #TidyTuesday dataset, relying on various volcano characteristics such as latitude, longitude, tectonic setting, etc. Since there are more than two volcano types, this task falls under the category of multiclass or multinomial classification rather than binary classification.

Code

library(tidyverse)

Code

volcano_raw <- readr::read_csv("https://raw.githubusercontent.com/rfordatascience/tidytuesday/master/data/2020/2020-05-12/volcano.csv")

volcano_raw %>%
  count(primary_volcano_type, sort = TRUE)

# A tibble: 26 × 2
   primary_volcano_type     n
   <chr>                <int>
 1 Stratovolcano          353
 2 Stratovolcano(es)      107
 3 Shield                  85
 4 Volcanic field          71
 5 Pyroclastic cone(s)     70
 6 Caldera                 65
 7 Complex                 46
 8 Shield(s)               33
 9 Submarine               27
10 Lava dome(s)            26
# ℹ 16 more rows
…
These type of relationships between category and title words are what we want to use in our predictive model.

Building a model

Instead of dividing this relatively small dataset into training and testing data, a set of bootstrap resamples will be generated.

Code

library(tidymodels)
volcano_boot <- bootstraps(volcano_df)

volcano_boot

# Bootstrap sampling 
# A tibble: 25 × 2
   splits            id         
   <list>            <chr>      
 1 <split [958/352]> Bootstrap01
 2 <split [958/358]> Bootstrap02
 3 <split [958/362]> Bootstrap03
 4 <split [958/360]> Bootstrap04
 5 <split [958/347]> Bootstrap05
 6 <split [958/358]> Bootstrap06
 7 <split [958/347]> Bootstrap07
 8 <split [958/362]> Bootstrap08
 9 <split [958/344]> Bootstrap09
10 <split [958/349]> Bootstrap10
# ℹ 15 more rows
…
Considering the numerous tectonic settings and rocks in the dataset, less frequently occurring levels are combined into an “Other” category for each predictor.

Subsequently, indicator variables are created, and those with zero variance are removed.

Prior to oversampling, all predictors are centered and scaled (normalized).

Lastly, SMOTE oversampling is implemented to ensure balance among the volcano types.

Code

volcano_prep <- prep(volcano_rec)
juice(volcano_prep)

# A tibble: 1,383 × 14
   volcano_number latitude longitude elevation volcano_type 
            <dbl>    <dbl>     <dbl>     <dbl> <fct>        
 1         283001   0.618      0.984   -0.875  Shield       
 2         355096  -1.21      -0.830    2.97   Stratovolcano
 3         342080  -0.0153    -1.04     1.50   Stratovolcano
 4         213004   0.746      0.101   -0.131  Other        
 5         321040   0.988     -1.32     1.34   Stratovolcano
 6         283170   0.718      1.06    -0.0992 Stratovolcano
 7         221170  -0.156      0.158   -0.0956 Stratovolcano
 8         221110  -0.0601     0.158   -0.440  Stratovolcano
 9         284160   0.120      1.11    -0.644  Stratovolcano
10         342100  -0.0165    -1.04     1.35   Stratovolcano
# ℹ 1,373 more rows
# ℹ 9 more variables:
#   tectonic_settings_Rift.zone...Continental.crust...25.km. <dbl>,
#   tectonic_settings_Rift.zone...Oceanic.crust....15.km. <dbl>,
#   tectonic_settings_Subduction.zone...Continental.crust...25.km. <dbl>,
#   tectonic_settings_Subduction.zone...Oceanic.crust....15.km. <dbl>,
#   tectonic_settings_other <dbl>, major_rock_1_Basalt...Picro.Basalt <dbl>, …
…
Even with the application of SMOTE oversampling, identifying stratovolcanoes remains relatively straightforward.

While accuracy and AUC were computed during fit_resamples(), it’s possible to revisit and calculate additional metrics of interest if the predictions were saved. Additionally, using group_by() on resamples allows for further analysis. Perform the same actions again.

Code

volcano_res %>%
  collect_predictions() %>%
  group_by(id) %>%
  ppv(volcano_type, .pred_class)

# A tibble: 25 × 4
   id          .metric .estimator .estimate
   <chr>       <chr>   <chr>          <dbl>
 1 Bootstrap01 ppv     macro          0.584
 2 Bootstrap02 ppv     macro          0.597
 3 Bootstrap03 ppv     macro          0.622
 4 Bootstrap04 ppv     macro          0.552
 5 Bootstrap05 ppv     macro          0.590
 6 Bootstrap06 ppv     macro          0.624
 7 Bootstrap07 ppv     macro          0.608
 8 Bootstrap08 ppv     macro          0.584
 9 Bootstrap09 ppv     macro          0.616
10 Bootstrap10 ppv     macro          0.579
# ℹ 15 more rows
…
The spatial information holds significant importance for the model, with the presence of basalt being the next crucial factor. To delve deeper into the spatial information, let’s further explore it and create a map illustrating the accuracy or inaccuracy of our modeling across the world. We can achieve this by rejoining the predictions back to the original data. Repeat this process once again.

Code

volcano_pred <- volcano_res %>%
  collect_predictions() %>%
  mutate(correct = volcano_type == .pred_class) %>%
  left_join(volcano_df %>%
    mutate(.row = row_number()))

volcano_pred

# A tibble: 8,800 × 15
   id          .pred_Other .pred_Shield .pred_Stratovolcano  .row .pred_class  
   <chr>             <dbl>        <dbl>               <dbl> <int> <fct>        
 1 Bootstrap01       0.164       0.0844               0.752     8 Stratovolcano
 2 Bootstrap01       0.228       0.0559               0.716    10 Stratovolcano
 3 Bootstrap01       0.580       0.244                0.175    11 Other        
 4 Bootstrap01       0.277       0.176                0.546    16 Stratovolcano
 5 Bootstrap01       0.247       0.421                0.333    17 Shield       
 6 Bootstrap01       0.216       0.439                0.344    22 Shield       
 7 Bootstrap01       0.210       0.608                0.182    26 Shield       
 8 Bootstrap01       0.213       0.0934               0.694    27 Stratovolcano
 9 Bootstrap01       0.291       0.0521               0.657    28 Stratovolcano
10 Bootstrap01       0.332       0.560                0.108    29 Shield       
# ℹ 8,790 more rows
# ℹ 9 more variables: volcano_type <fct>, .config <chr>, correct <lgl>,
#   volcano_number <dbl>, latitude <dbl>, longitude <dbl>, elevation <dbl>,
#   tectonic_settings <fct>, major_rock_1 <fct>
…
